Across – Advanced R for Data Science
…
toupper("abc")

[1] "ABC"

Before introducing across, let’s first see one way that we could do this using the map() functions that we have just learned (there are often multiple ways of doing the same thing):

# one way to convert all character columns to uppercase
# creating a boolean/logical vector for identifying character columns
character_cols <- map_chr(demographics, class) == "character"
# re-assinging the character columns to an upper-case version of themselves
demographics[character_cols] <- map_df(demographics[character_cols], toupper)
demographics

# A tibble: 10,175 × 19
   respondent_id interview_examination   gender age_years age_months_sc_0_2yr
           <dbl> <chr>                   <chr>      <dbl>               <dbl>
 1         73557 BOTH INTERVIEW AND EXAM MALE          69                  NA
 2         73558 BOTH INTERVIEW AND EXAM MALE          54                  NA
 3         73559 BOTH INTERVIEW AND EXAM MALE          72                  NA
 4         73560 BOTH INTERVIEW AND EXAM MALE           9                  NA
 5         73561 BOTH INTERVIEW AND EXAM FEMALE        73                  NA
 6         73562 BOTH INTERVIEW AND EXAM MALE          56                  NA
 7         73563 BOTH INTERVIEW AND EXAM MALE           0                   5
 8         73564 BOTH INTERVIEW AND EXAM FEMALE        61                  NA
 9         73565 INTERVIEW ONLY          MALE          42                  NA
10         73566 BOTH INTERVIEW AND EXAM FEMALE        56                  NA
# ℹ 10,165 more rows
# ℹ 14 more variables: race <chr>, six_month_period <dbl>,
#   age_months_ex_0_19yr <dbl>, served_active_duty_us <lgl>,
#   served_active_duty_foreign <lgl>, born_usa <lgl>, citizen_usa <lgl>,
#   time_in_us <dbl>, education_youth <dbl>, education <dbl>,
#   marital_status <chr>, pregnant <chr>, language_english <lgl>,
#   household_income <dbl>
…
demographics <- read_csv("data/demographics.csv")

Rows: 10175 Columns: 19
── Column specification ────────────────────────────────────────────────────────
Delimiter: ","
chr (5): interview_examination, gender, race, marital_status, pregnant
dbl (9): respondent_id, age_years, age_months_sc_0_2yr, six_month_period, ag...
lgl (5): served_active_duty_us, served_active_duty_foreign, born_usa, citize...

ℹ Use `spec()` to retrieve the full column specification for this data.
ℹ Specify the column types or set `show_col_types = FALSE` to quiet this message.

demographics

# A tibble: 10,175 × 19
   respondent_id interview_examination   gender age_years age_months_sc_0_2yr
           <dbl> <chr>                   <chr>      <dbl>               <dbl>
 1         73557 both interview and exam male          69                  NA
 2         73558 both interview and exam male          54                  NA
 3         73559 both interview and exam male          72                  NA
 4         73560 both interview and exam male           9                  NA
 5         73561 both interview and exam female        73                  NA
 6         73562 both interview and exam male          56                  NA
 7         73563 both interview and exam male           0                   5
 8         73564 both interview and exam female        61                  NA
 9         73565 interview only          male          42                  NA
10         73566 both interview and exam female        56                  NA
# ℹ 10,165 more rows
# ℹ 14 more variables: race <chr>, six_month_period <dbl>,
#   age_months_ex_0_19yr <dbl>, served_active_duty_us <lgl>,
#   served_active_duty_foreign <lgl>, born_usa <lgl>, citizen_usa <lgl>,
#   time_in_us <dbl>, education_youth <dbl>, education <dbl>,
#   marital_status <chr>, pregnant <chr>, language_english <lgl>,
#   household_income <dbl>

Introducing across()

We could instead do this kind of operation using a mutate() operation in conjunction with across().

First, if we were to conduct our uppercase operation for just one character column, say, interview_examination, then we could do this using a mutate function as follows:

# just for the interview_examination column
demographics |> mutate(interview_examination = toupper(interview_examination))

# A tibble: 10,175 × 19
   respondent_id interview_examination   gender age_years age_months_sc_0_2yr
           <dbl> <chr>                   <chr>      <dbl>               <dbl>
 1         73557 BOTH INTERVIEW AND EXAM male          69                  NA
 2         73558 BOTH INTERVIEW AND EXAM male          54                  NA
 3         73559 BOTH INTERVIEW AND EXAM male          72                  NA
 4         73560 BOTH INTERVIEW AND EXAM male           9                  NA
 5         73561 BOTH INTERVIEW AND EXAM female        73                  NA
 6         73562 BOTH INTERVIEW AND EXAM male          56                  NA
 7         73563 BOTH INTERVIEW AND EXAM male           0                   5
 8         73564 BOTH INTERVIEW AND EXAM female        61                  NA
 9         73565 INTERVIEW ONLY          male          42                  NA
10         73566 BOTH INTERVIEW AND EXAM female        56                  NA
# ℹ 10,165 more rows
# ℹ 14 more variables: race <chr>, six_month_period <dbl>,
#   age_months_ex_0_19yr <dbl>, served_active_duty_us <lgl>,
#   served_active_duty_foreign <lgl>, born_usa <lgl>, citizen_usa <lgl>,
#   time_in_us <dbl>, education_youth <dbl>, education <dbl>,
#   marital_status <chr>, pregnant <chr>, language_english <lgl>,
#   household_income <dbl>

To do this for all character columns, you need to provide across() to the argument of your mutate function. The across() function has two arguments:

The first argument is a “select statement” that specifies which columns you want to apply your function to. Since we want to apply our toupper function to all character columns, we use the where() function to provide a logical function, which, when applied to all columns, will only output TRUE for the character columns, resulting in them being selected for computation.

The second argument is the function name, toupper, that we want to apply to all columns that are selected as a result of the first argument.

The result is that toupper() is applied to all columns where is.character() would result in TRUE:

demographics |> mutate(across(where(is.character), toupper))

# A tibble: 10,175 × 19
   respondent_id interview_examination   gender age_years age_months_sc_0_2yr
           <dbl> <chr>                   <chr>      <dbl>               <dbl>
 1         73557 BOTH INTERVIEW AND EXAM MALE          69                  NA
 2         73558 BOTH INTERVIEW AND EXAM MALE          54                  NA
 3         73559 BOTH INTERVIEW AND EXAM MALE          72                  NA
 4         73560 BOTH INTERVIEW AND EXAM MALE           9                  NA
 5         73561 BOTH INTERVIEW AND EXAM FEMALE        73                  NA
 6         73562 BOTH INTERVIEW AND EXAM MALE          56                  NA
 7         73563 BOTH INTERVIEW AND EXAM MALE           0                   5
 8         73564 BOTH INTERVIEW AND EXAM FEMALE        61                  NA
 9         73565 INTERVIEW ONLY          MALE          42                  NA
10         73566 BOTH INTERVIEW AND EXAM FEMALE        56                  NA
# ℹ 10,165 more rows
# ℹ 14 more variables: race <chr>, six_month_period <dbl>,
#   age_months_ex_0_19yr <dbl>, served_active_duty_us <lgl>,
#   served_active_duty_foreign <lgl>, born_usa <lgl>, citizen_usa <lgl>,
#   time_in_us <dbl>, education_youth <dbl>, education <dbl>,
#   marital_status <chr>, pregnant <chr>, language_english <lgl>,
#   household_income <dbl>

More across examples

Add 100 to all age_ columns

Let’s first look at another mutate() example, where this time, we want to add 100 to all columns whose name starts with age_.

If we were to do this to just the age_years column, our code would look like:

demographics |> mutate(age_years = age_years + 100)

# A tibble: 10,175 × 19
   respondent_id interview_examination   gender age_years age_months_sc_0_2yr
           <dbl> <chr>                   <chr>      <dbl>               <dbl>
 1         73557 both interview and exam male         169                  NA
 2         73558 both interview and exam male         154                  NA
 3         73559 both interview and exam male         172                  NA
 4         73560 both interview and exam male         109                  NA
 5         73561 both interview and exam female       173                  NA
 6         73562 both interview and exam male         156                  NA
 7         73563 both interview and exam male         100                   5
 8         73564 both interview and exam female       161                  NA
 9         73565 interview only          male         142                  NA
10         73566 both interview and exam female       156                  NA
# ℹ 10,165 more rows
# ℹ 14 more variables: race <chr>, six_month_period <dbl>,
#   age_months_ex_0_19yr <dbl>, served_active_duty_us <lgl>,
#   served_active_duty_foreign <lgl>, born_usa <lgl>, citizen_usa <lgl>,
#   time_in_us <dbl>, education_youth <dbl>, education <dbl>,
#   marital_status <chr>, pregnant <chr>, language_english <lgl>,
#   household_income <dbl>

To generalize this to all columns that start with age_ using across(), we can use the starts_with() select helper, and apply the anonymous function ~{. + 100}:

demographics |> mutate(across(starts_with("age_"), ~{. + 100}))

# A tibble: 10,175 × 19
   respondent_id interview_examination   gender age_years age_months_sc_0_2yr
           <dbl> <chr>                   <chr>      <dbl>               <dbl>
 1         73557 both interview and exam male         169                  NA
 2         73558 both interview and exam male         154                  NA
 3         73559 both interview and exam male         172                  NA
 4         73560 both interview and exam male         109                  NA
 5         73561 both interview and exam female       173                  NA
 6         73562 both interview and exam male         156                  NA
 7         73563 both interview and exam male         100                 105
 8         73564 both interview and exam female       161                  NA
 9         73565 interview only          male         142                  NA
10         73566 both interview and exam female       156                  NA
# ℹ 10,165 more rows
# ℹ 14 more variables: race <chr>, six_month_period <dbl>,
#   age_months_ex_0_19yr <dbl>, served_active_duty_us <lgl>,
#   served_active_duty_foreign <lgl>, born_usa <lgl>, citizen_usa <lgl>,
#   time_in_us <dbl>, education_youth <dbl>, education <dbl>,
#   marital_status <chr>, pregnant <chr>, language_english <lgl>,
#   household_income <dbl>

Convert born_usa and citizen_usa to numeric (binary) columns using ends_with()

The next example involves convert born_usa and citizen_usa to numeric (binary) columns.

demographics |> select(born_usa, citizen_usa)

# A tibble: 10,175 × 2
   born_usa citizen_usa
   <lgl>    <lgl>      
 1 TRUE     TRUE       
 2 TRUE     TRUE       
 3 TRUE     TRUE       
 4 TRUE     TRUE       
 5 TRUE     TRUE       
 6 TRUE     TRUE       
 7 TRUE     TRUE       
 8 TRUE     TRUE       
 9 TRUE     TRUE       
10 TRUE     TRUE       
# ℹ 10,165 more rows

Since both born_usa and citizen_usa end with _usa (and they are the only columns to do so), we can use the ends_with() select helper. In this case, to convert the logical TRUE/FALSE values to numeric 0/1 values, the function we are applying is as.numeric(). The code below uses across() to do this:

demographics |> mutate(across(ends_with("_usa"), as.numeric)) |> 
  print(width = Inf)

# A tibble: 10,175 × 19
   respondent_id interview_examination   gender age_years age_months_sc_0_2yr
           <dbl> <chr>                   <chr>      <dbl>               <dbl>
 1         73557 both interview and exam male          69                  NA
 2         73558 both interview and exam male          54                  NA
 3         73559 both interview and exam male          72                  NA
 4         73560 both interview and exam male           9                  NA
 5         73561 both interview and exam female        73                  NA
 6         73562 both interview and exam male          56                  NA
 7         73563 both interview and exam male           0                   5
 8         73564 both interview and exam female        61                  NA
 9         73565 interview only          male          42                  NA
10         73566 both interview and exam female        56                  NA
   race             six_month_period age_months_ex_0_19yr served_active_duty_us
   <chr>                       <dbl>                <dbl> <lgl>                
 1 black                           1                   NA TRUE                 
 2 white                           1                   NA FALSE                
 3 white                           2                   NA TRUE                 
 4 white                           1                  119 NA                   
 5 white                           1                   NA FALSE                
 6 mexican american                1                   NA TRUE                 
 7 white                           2                    6 NA                   
 8 white                           2                   NA FALSE                
 9 other hispanic                 NA                   NA FALSE                
10 white                           1                   NA FALSE                
   served_active_duty_foreign born_usa citizen_usa time_in_us education_youth
   <lgl>                         <dbl>       <dbl>      <dbl>           <dbl>
 1 TRUE                              1           1         NA              NA
 2 NA                                1           1         NA              NA
 3 TRUE                              1           1         NA              NA
 4 NA                                1           1         NA               3
 5 NA                                1           1         NA              NA
 6 FALSE                             1           1         NA              NA
 7 NA                                1           1         NA              NA
 8 NA                                1           1         NA              NA
 9 NA                                1           1         NA              NA
10 NA                                1           1         NA              NA
   education marital_status pregnant language_english household_income
       <dbl> <chr>          <chr>    <lgl>                       <dbl>
 1         3 separated      <NA>     TRUE                        17500
 2         3 married        <NA>     TRUE                        40000
 3         4 married        <NA>     TRUE                        70000
 4        NA <NA>           <NA>     TRUE                        60000
 5         5 married        <NA>     TRUE                       100000
 6         4 divorced       <NA>     TRUE                        60000
 7        NA <NA>           <NA>     TRUE                       100000
 8         5 widowed        <NA>     TRUE                        70000
 9         3 married        <NA>     TRUE                       100000
10         3 divorced       <NA>     TRUE                        17500
# ℹ 10,165 more rows

Convert born_usa and citizen_usa to numeric (binary) columns using a vector of column names

Suppose we had a vector of column names that we wanted to modify using mutate():

selected_cols <- c("born_usa", "citizen_usa")

Then we could use all_of(selected_cols) in across() to apply the function to all columns listed in the selected_cols vector as follows:

demographics |> mutate(across(all_of(selected_cols), as.numeric)) |>
  print(width = Inf)

# A tibble: 10,175 × 19
   respondent_id interview_examination   gender age_years age_months_sc_0_2yr
           <dbl> <chr>                   <chr>      <dbl>               <dbl>
 1         73557 both interview and exam male          69                  NA
 2         73558 both interview and exam male          54                  NA
 3         73559 both interview and exam male          72                  NA
 4         73560 both interview and exam male           9                  NA
 5         73561 both interview and exam female        73                  NA
 6         73562 both interview and exam male          56                  NA
 7         73563 both interview and exam male           0                   5
 8         73564 both interview and exam female        61                  NA
 9         73565 interview only          male          42                  NA
10         73566 both interview and exam female        56                  NA
   race             six_month_period age_months_ex_0_19yr served_active_duty_us
   <chr>                       <dbl>                <dbl> <lgl>                
 1 black                           1                   NA TRUE                 
 2 white                           1                   NA FALSE                
 3 white                           2                   NA TRUE                 
 4 white                           1                  119 NA                   
 5 white                           1                   NA FALSE                
 6 mexican american                1                   NA TRUE                 
 7 white                           2                    6 NA                   
 8 white                           2                   NA FALSE                
 9 other hispanic                 NA                   NA FALSE                
10 white                           1                   NA FALSE                
   served_active_duty_foreign born_usa citizen_usa time_in_us education_youth
   <lgl>                         <dbl>       <dbl>      <dbl>           <dbl>
 1 TRUE                              1           1         NA              NA
 2 NA                                1           1         NA              NA
 3 TRUE                              1           1         NA              NA
 4 NA                                1           1         NA               3
 5 NA                                1           1         NA              NA
 6 FALSE                             1           1         NA              NA
 7 NA                                1           1         NA              NA
 8 NA                                1           1         NA              NA
 9 NA                                1           1         NA              NA
10 NA                                1           1         NA              NA
   education marital_status pregnant language_english household_income
       <dbl> <chr>          <chr>    <lgl>                       <dbl>
 1         3 separated      <NA>     TRUE                        17500
 2         3 married        <NA>     TRUE                        40000
 3         4 married        <NA>     TRUE                        70000
 4        NA <NA>           <NA>     TRUE                        60000
 5         5 married        <NA>     TRUE                       100000
 6         4 divorced       <NA>     TRUE                        60000
 7        NA <NA>           <NA>     TRUE                       100000
 8         5 widowed        <NA>     TRUE                        70000
 9         3 married        <NA>     TRUE                       100000
10         3 divorced       <NA>     TRUE                        17500
# ℹ 10,165 more rows
…
