Recoding variables using if_else and case_when – Advanced R for Data Science
…
demographics <- read_csv("data/demographics.csv")

Rows: 10175 Columns: 19
── Column specification ────────────────────────────────────────────────────────
Delimiter: ","
chr (5): interview_examination, gender, race, marital_status, pregnant
dbl (9): respondent_id, age_years, age_months_sc_0_2yr, six_month_period, ag...
lgl (5): served_active_duty_us, served_active_duty_foreign, born_usa, citize...

ℹ Use `spec()` to retrieve the full column specification for this data.
ℹ Specify the column types or set `show_col_types = FALSE` to quiet this message.

demographics

# A tibble: 10,175 × 19
   respondent_id interview_examination   gender age_years age_months_sc_0_2yr
           <dbl> <chr>                   <chr>      <dbl>               <dbl>
 1         73557 both interview and exam male          69                  NA
 2         73558 both interview and exam male          54                  NA
 3         73559 both interview and exam male          72                  NA
 4         73560 both interview and exam male           9                  NA
 5         73561 both interview and exam female        73                  NA
 6         73562 both interview and exam male          56                  NA
 7         73563 both interview and exam male           0                   5
 8         73564 both interview and exam female        61                  NA
 9         73565 interview only          male          42                  NA
10         73566 both interview and exam female        56                  NA
# ℹ 10,165 more rows
# ℹ 14 more variables: race <chr>, six_month_period <dbl>,
#   age_months_ex_0_19yr <dbl>, served_active_duty_us <lgl>,
#   served_active_duty_foreign <lgl>, born_usa <lgl>, citizen_usa <lgl>,
#   time_in_us <dbl>, education_youth <dbl>, education <dbl>,
#   marital_status <chr>, pregnant <chr>, language_english <lgl>,
#   household_income <dbl>
…
# A tibble: 2 × 2
  interview_examination       n
  <chr>                   <int>
1 both interview and exam  9813
2 interview only            362

If we wanted to do an analysis involving this column, we might need to convert it to a numeric format. We can do that using if_else(). The code below uses if_else() to create a column called interview_examination_numeric that converts all values in interview_examination that are equal to "both interview and exam" to 2, and converts all other values to 1.

demographics |> 
  mutate(interview_examination_numeric = if_else(interview_examination == "both interview and exam", 
                                                 true = 2, 
                                                 false = 1)) |>
  select(interview_examination, interview_examination_numeric)

# A tibble: 10,175 × 2
   interview_examination   interview_examination_numeric
   <chr>                                           <dbl>
 1 both interview and exam                             2
 2 both interview and exam                             2
 3 both interview and exam                             2
 4 both interview and exam                             2
 5 both interview and exam                             2
 6 both interview and exam                             2
 7 both interview and exam                             2
 8 both interview and exam                             2
 9 interview only                                      1
10 both interview and exam                             2
# ℹ 10,165 more rows

Note that you can use if_else() for columns of any type. The following code again creates the interview_examination_numeric column, and then creates a new column called interview_examination_revert that takes the numeric encoding and converts the values 2 and 1 to new character values, "both" and "just interview", respectively. We also use the select helper contains() inside our select function to view all of the resulting columns that contain the word "interview":

demographics |> 
  mutate(interview_examination_numeric = if_else(interview_examination == "both interview and exam", 
                                                 true = 2, 
                                                 false = 1)) |>
  mutate(interview_examination_revert = if_else(interview_examination_numeric == 2,
                                                true = "both",
                                                false = "just interview")) |>
  select(contains("interview"))

# A tibble: 10,175 × 3
   interview_examination   interview_examination_numeric interview_examination…¹
   <chr>                                           <dbl> <chr>                  
 1 both interview and exam                             2 both                   
 2 both interview and exam                             2 both                   
 3 both interview and exam                             2 both                   
 4 both interview and exam                             2 both                   
 5 both interview and exam                             2 both                   
 6 both interview and exam                             2 both                   
 7 both interview and exam                             2 both                   
 8 both interview and exam                             2 both                   
 9 interview only                                      1 just interview         
10 both interview and exam                             2 both                   
# ℹ 10,165 more rows
# ℹ abbreviated name: ¹​interview_examination_revert
…
To create a new variable based on marital_status that replaces "married" with 3, "living_with_partner" with 2, and each of "divorced", "widowed", "never_married", and "separated" with 1, you can use the following code (the select() function at the end just allows us to view the original and the new columns side-by-side).

demographics |> mutate(marital_status_numeric = case_when(marital_status == "married" ~ 3,
                                                          marital_status == "living_with_partner" ~ 2,
                                                          marital_status == "divorced" ~ 1,
                                                          marital_status == "widowed" ~ 1,
                                                          marital_status == "never_married" ~ 1,
                                                          marital_status == "separated" ~ 1)) |>
  select(marital_status, marital_status_numeric)

# A tibble: 10,175 × 2
   marital_status marital_status_numeric
   <chr>                           <dbl>
 1 separated                           1
 2 married                             3
 3 married                             3
 4 <NA>                               NA
 5 married                             3
 6 divorced                            1
 7 <NA>                               NA
 8 widowed                             1
 9 married                             3
10 divorced                            1
# ℹ 10,165 more rows

The argument syntax of case_when() is CONDITION ~ new_value, where for entries in the original column for which CONDITION is TRUE, the value new_value is returned. So in marital_status == "married" ~ 3, the CONDITION is marital_status == "married", and the new_value is 3.

Note that if you have multiple values that you want to recode as the same value, you can use the %in% vector syntax for asking whether a variable is contained %in% a vector of values:

demographics |> 
  mutate(marital_status_numeric = case_when(
    marital_status == "married" ~ 3,
    marital_status == "living_with_partner" ~ 2,
    # replace the final four conditions with a single %in% condition:
    marital_status %in% c("divorced", "widowed", "never_married", "separated") ~ 1)
  ) |>
  select(marital_status, marital_status_numeric)

# A tibble: 10,175 × 2
   marital_status marital_status_numeric
   <chr>                           <dbl>
 1 separated                           1
 2 married                             3
 3 married                             3
 4 <NA>                               NA
 5 married                             3
 6 divorced                            1
 7 <NA>                               NA
 8 widowed                             1
 9 married                             3
10 divorced                            1
# ℹ 10,165 more rows
…
