Joining Data Together – Advanced R for Data Science
…
However, notice that the observations in demographics that have labs observations have all been duplicated to match the number of rows in the labs data for each respondent. There are now many more rows in our joined data than we had in our demographics data, which is not what we want!

An important lesson is learned here: if your key ID variable has repeated values, your joined data will too.

A good check after completing a join is to make sure that the number of rows in the resulting joined data matches what you expect

Therefore, to ensure that we have just one row per observational unit (i.e., per respondent_id value), we need to join the wide-format labs_wide data instead of the long-format labs data.

Below, we compute the wide-format labs data:

labs_wide <- labs |> pivot_wider(names_from = "lab", values_from = "measurement")
labs_wide

# A tibble: 8,291 × 6
   respondent_id ur_albumin_ug_ml ur_albumin_mg_l ur_creatinine_mg_dl
           <dbl>            <dbl>           <dbl>               <dbl>
 1         73557              4.3             4.3                  39
 2         73558            153             153                    50
 3         73559             11.9            11.9                 113
 4         73560             16              16                    76
 5         73561            255             255                   147
 6         73562            123             123                    74
 7         73564             19              19                   242
 8         73566              1.3             1.3                  18
 9         73567             35              35                   215
10         73568             25              25                    31
# ℹ 8,281 more rows
# ℹ 2 more variables: ur_creatinine_umol_l <dbl>,
#   ur_albumin_creatinine_ratio <dbl>
…
Exercise

How many rows would you expect an inner join of demographics and labs_wide to have? Check your answer by conducting the join using inner_join()

The number of rows should match the intersection of the two datasets. Since all people in labs_wide are also in demographics, the join will have the same number of rows in labs_wide.

nrow(labs_wide)

[1] 8291

The join can be conducted using inner_join() and notice that the number of rows matches labs_wide.

inner_join(demographics, labs_wide, by = "respondent_id")

# A tibble: 8,291 × 24
   respondent_id interview_examination   gender age_years age_months_sc_0_2yr
           <dbl> <chr>                   <chr>      <dbl>               <dbl>
 1         73557 both interview and exam male          69                  NA
 2         73558 both interview and exam male          54                  NA
 3         73559 both interview and exam male          72                  NA
 4         73560 both interview and exam male           9                  NA
 5         73561 both interview and exam female        73                  NA
 6         73562 both interview and exam male          56                  NA
 7         73564 both interview and exam female        61                  NA
 8         73566 both interview and exam female        56                  NA
 9         73567 both interview and exam male          65                  NA
10         73568 both interview and exam female        26                  NA
# ℹ 8,281 more rows
# ℹ 19 more variables: race <chr>, six_month_period <dbl>,
#   age_months_ex_0_19yr <dbl>, served_active_duty_us <lgl>,
#   served_active_duty_foreign <lgl>, born_usa <lgl>, citizen_usa <lgl>,
#   time_in_us <dbl>, education_youth <dbl>, education <dbl>,
#   marital_status <chr>, pregnant <chr>, language_english <lgl>,
#   household_income <dbl>, ur_albumin_ug_ml <dbl>, ur_albumin_mg_l <dbl>, …
…
